…
covid_morb<- covid_data_clean_1 %>% 
  group_by(age_group,death_yn,sex,medcond_yn) %>%
  summarise(count=n()) %>% 
  pivot_wider(names_from = death_yn, values_from = count) %>% 
  mutate(death_rate=(Yes/(Yes+No))) %>% 
  mutate(death_rate_perc=paste(round(100*death_rate, 1), "%", sep=""))

covid_morb

## # A tibble: 36 x 7
## # Groups:   age_group, sex [18]
##    age_group     sex    medcond_yn    No   Yes death_rate death_rate_perc
##    <chr>         <chr>  <chr>      <int> <int>      <dbl> <chr>          
##  1 0 - 9 Years   Female No          6623     3   0.000453 0%             
##  2 0 - 9 Years   Female Yes         2434     6   0.00246  0.2%           
##  3 0 - 9 Years   Male   No          6768     5   0.000738 0.1%           
##  4 0 - 9 Years   Male   Yes         2758     6   0.00217  0.2%           
##  5 10 - 19 Years Female No         20576     4   0.000194 0%             
##  6 10 - 19 Years Female Yes         8328    13   0.00156  0.2%           
##  7 10 - 19 Years Male   No         18226     4   0.000219 0%             
##  8 10 - 19 Years Male   Yes         7465    16   0.00214  0.2%           
##  9 20 - 29 Years Female No         41891     7   0.000167 0%             
## 10 20 - 29 Years Female Yes        22301    79   0.00353  0.4%           
## # … with 26 more rows
…
covid_icu<- covid_data_clean_2 %>% 
  group_by(age_group,death_yn,sex,icu_yn) %>%
  summarise(count=n()) %>% 
  pivot_wider(names_from = death_yn, values_from = count) %>% 
  mutate(death_rate=(Yes/(Yes+No))) %>% 
  mutate(death_rate_perc=paste(round(100*death_rate, 1), "%", sep=""))

covid_icu

## # A tibble: 36 x 7
## # Groups:   age_group, sex [18]
##    age_group     sex    icu_yn    No   Yes death_rate death_rate_perc
##    <chr>         <chr>  <chr>  <int> <int>      <dbl> <chr>          
##  1 0 - 9 Years   Female No      3467     5   0.00144  0.1%           
##  2 0 - 9 Years   Female Yes       49     2   0.0392   3.9%           
##  3 0 - 9 Years   Male   No      3595    NA  NA        NA%            
##  4 0 - 9 Years   Male   Yes       61     7   0.103    10.3%          
##  5 10 - 19 Years Female No     12395     4   0.000323 0%             
##  6 10 - 19 Years Female Yes       70     8   0.103    10.3%          
##  7 10 - 19 Years Male   No     10991     3   0.000273 0%             
##  8 10 - 19 Years Male   Yes       95    13   0.120    12%            
##  9 20 - 29 Years Female No     29087    15   0.000515 0.1%           
## 10 20 - 29 Years Female Yes      204    34   0.143    14.3%          
## # … with 26 more rows
…
First let’s compare the number of total cases in a few European countries

covid_europe <- covid_more %>%
  
#filter data for countries
  filter(location %in% c("United Kingdom", "Germany","France","Sweden", "Switzerland"))

covid_europe

## # A tibble: 1,459 x 41
##    iso_code continent location date       total_cases new_cases new_cases_smoot…
##    <chr>    <chr>     <chr>    <date>           <dbl>     <dbl>            <dbl>
##  1 FRA      Europe    France   2019-12-31          NA         0               NA
##  2 FRA      Europe    France   2020-01-01          NA         0               NA
##  3 FRA      Europe    France   2020-01-02          NA         0               NA
##  4 FRA      Europe    France   2020-01-03          NA         0               NA
##  5 FRA      Europe    France   2020-01-04          NA         0               NA
##  6 FRA      Europe    France   2020-01-05          NA         0               NA
##  7 FRA      Europe    France   2020-01-06          NA         0                0
##  8 FRA      Europe    France   2020-01-07          NA         0                0
##  9 FRA      Europe    France   2020-01-08          NA         0                0
## 10 FRA      Europe    France   2020-01-09          NA         0                0
## # … with 1,449 more rows, and 34 more variables: total_deaths <dbl>,
## #   new_deaths <dbl>, new_deaths_smoothed <dbl>, total_cases_per_million <dbl>,
## #   new_cases_per_million <dbl>, new_cases_smoothed_per_million <dbl>,
## #   total_deaths_per_million <dbl>, new_deaths_per_million <dbl>,
## #   new_deaths_smoothed_per_million <dbl>, new_tests <lgl>, total_tests <lgl>,
## #   total_tests_per_thousand <lgl>, new_tests_per_thousand <lgl>,
## #   new_tests_smoothed <lgl>, new_tests_smoothed_per_thousand <lgl>,
## #   tests_per_case <lgl>, positive_rate <lgl>, tests_units <lgl>,
## #   stringency_index <dbl>, population <dbl>, population_density <dbl>,
…
