Equal Pay Analysis
…
# hypothesize H0 (use independence because we have two samples)

  hypothesize(null="independence") %>% 

# generate replicates

  generate(reps=1000, type="permute") %>% 

# calculate summary statistics
  
  calculate(stat = "diff in means", order = c("male","female"))

null_distribution

## # A tibble: 1,000 x 2
##    replicate    stat
##        <int>   <dbl>
##  1         1  2176. 
##  2         2   -47.6
##  3         3 -1527. 
##  4         4 -1502. 
##  5         5  -188. 
##  6         6  1556. 
##  7         7 -1502. 
##  8         8   225. 
##  9         9 -2296. 
## 10        10  3052. 
## #  with 990 more rows
…
# hypothesize H0 (use independence because we have only one dataset)

  hypothesize(null="independence") %>% 

# generate replicates

  generate(reps=1000, type="permute") %>% 

# calculate summary statistics
  
  calculate(stat = "diff in means", order = c("male","female"))

null_distribution

## # A tibble: 1,000 x 2
##    replicate    stat
##        <int>   <dbl>
##  1         1  2176. 
##  2         2   -47.6
##  3         3 -1527. 
##  4         4 -1502. 
##  5         5  -188. 
##  6         6  1556. 
##  7         7 -1502. 
##  8         8   225. 
##  9         9 -2296. 
## 10        10  3052. 
## #  with 990 more rows
…
