Equal Pay Analysis · Forty
…
# hypothesize H0 (use independence because we have two samples)

  hypothesize(null="independence") %>% 

# generate replicates

  generate(reps=1000, type="permute") %>% 

# calculate summary statistics
  
  calculate(stat = "diff in means", order = c("male","female"))

null_distribution

## # A tibble: 1,000 x 2
##    replicate   stat
##        <int>  <dbl>
##  1         1 -3386.
##  2         2 -1428.
##  3         3 -1362.
##  4         4  1200.
##  5         5 -1436.
##  6         6 -2948.
##  7         7 -3056.
##  8         8  1605.
##  9         9  6605.
## 10        10   176.
## # … with 990 more rows
…
# hypothesize H0 (use independence because we have only one dataset)

  hypothesize(null="independence") %>% 

# generate replicates

  generate(reps=1000, type="permute") %>% 

# calculate summary statistics
  
  calculate(stat = "diff in means", order = c("male","female"))

null_distribution

## # A tibble: 1,000 x 2
##    replicate   stat
##        <int>  <dbl>
##  1         1 -3386.
##  2         2 -1428.
##  3         3 -1362.
##  4         4  1200.
##  5         5 -1436.
##  6         6 -2948.
##  7         7 -3056.
##  8         8  1605.
##  9         9  6605.
## 10        10   176.
## # … with 990 more rows
…
