Covid 19 Analysis 🦠 · Forty
…
# count obersvations in each group 
  summarise(count=n()) %>% 

#pivot wider to create two coloumns from death_yn
  pivot_wider(names_from = death_yn, values_from = count) %>% 

#add coloumn for death rate 
  mutate(death_rate=(Yes/(Yes+No))) %>% 
  mutate(death_rate_perc=paste(round(100*death_rate, 1), "%", sep=""))

covid_morb

## # A tibble: 36 x 7
## # Groups:   age_group, sex [18]
##    age_group     sex    medcond_yn    No   Yes death_rate death_rate_perc
##    <chr>         <chr>  <chr>      <int> <int>      <dbl> <chr>          
##  1 0 - 9 Years   Female No          6623     3   0.000453 0%             
##  2 0 - 9 Years   Female Yes         2434     6   0.00246  0.2%           
##  3 0 - 9 Years   Male   No          6768     5   0.000738 0.1%           
##  4 0 - 9 Years   Male   Yes         2758     6   0.00217  0.2%           
##  5 10 - 19 Years Female No         20576     4   0.000194 0%             
##  6 10 - 19 Years Female Yes         8328    13   0.00156  0.2%           
##  7 10 - 19 Years Male   No         18226     4   0.000219 0%             
##  8 10 - 19 Years Male   Yes         7465    16   0.00214  0.2%           
##  9 20 - 29 Years Female No         41891     7   0.000167 0%             
## 10 20 - 29 Years Female Yes        22301    79   0.00353  0.4%           
## # … with 26 more rows
…
# count observations
  summarise(count=n()) %>% 

#pivot wider to create two coloumns from death_yn
  pivot_wider(names_from = death_yn, values_from = count) %>% 
  
#add coloumn for death rate
  mutate(death_rate=(Yes/(Yes+No))) %>% 
  mutate(death_rate_perc=paste(round(100*death_rate, 1), "%", sep=""))

covid_icu

## # A tibble: 36 x 7
## # Groups:   age_group, sex [18]
##    age_group     sex    icu_yn    No   Yes death_rate death_rate_perc
##    <chr>         <chr>  <chr>  <int> <int>      <dbl> <chr>          
##  1 0 - 9 Years   Female No      3467     5   0.00144  0.1%           
##  2 0 - 9 Years   Female Yes       49     2   0.0392   3.9%           
##  3 0 - 9 Years   Male   No      3595    NA  NA        NA%            
##  4 0 - 9 Years   Male   Yes       61     7   0.103    10.3%          
##  5 10 - 19 Years Female No     12395     4   0.000323 0%             
##  6 10 - 19 Years Female Yes       70     8   0.103    10.3%          
##  7 10 - 19 Years Male   No     10991     3   0.000273 0%             
##  8 10 - 19 Years Male   Yes       95    13   0.120    12%            
##  9 20 - 29 Years Female No     29087    15   0.000515 0.1%           
## 10 20 - 29 Years Female Yes      204    34   0.143    14.3%          
## # … with 26 more rows
…
